{
    "data": [
        {
            "id": "1pzpmw",
            "url": "https://wallhaven.cc/w/1pzpmw",
            "short_url": "https://whvn.cc/1pzpmw",
            "views": 194,
            "favorites": 3,
            "source": "",
            "purity": "sfw",
            "category": "general",
            "dimension_x": 7921,
            "dimension_y": 5263,
            "resolution": "7921x5263",
            "ratio": "1.51",
            "file_size": 5932234,
            "file_type": "image/jpeg",
            "created_at": "2024-08-27 10:59:42",
            "colors": [
                "#000000",
                "#424153",
                "#663300",
                "#999999",
                "#e7d8b1"
            ],
            "path": "https://w.wallhaven.cc/full/1p/wallhaven-1pzpmw.jpg",
            "thumbs": {
                "large": "https://th.wallhaven.cc/lg/1p/1pzpmw.jpg",
                "original": "https://th.wallhaven.cc/orig/1p/1pzpmw.jpg",
                "small": "https://th.wallhaven.cc/small/1p/1pzpmw.jpg"
            }
        },
        {
            "id": "kxqx66",
            "url": "https://wallhaven.cc/w/kxqx66",
            "short_url": "https://whvn.cc/kxqx66",
            "views": 224,
            "favorites": 8,
            "source": "",
            "purity": "sfw",
            "category": "general",
            "dimension_x": 6143,
            "dimension_y": 3872,
            "resolution": "6143x3872",
            "ratio": "1.59",
            "file_size": 4630843,
            "file_type": "image/jpeg",
            "created_at": "2024-08-27 10:59:42",
            "colors": [
                "#999999",
                "#424153",
                "#e7d8b1",
                "#663300",
                "#000000"
            ],
            "path": "https://w.wallhaven.cc/full/kx/wallhaven-kxqx66.jpg",
            "thumbs": {
                "large": "https://th.wallhaven.cc/lg/kx/kxqx66.jpg",
                "original": "https://th.wallhaven.cc/orig/kx/kxqx66.jpg",
                "small": "https://th.wallhaven.cc/small/kx/kxqx66.jpg"
            }
        },
        {
            "id": "zyeyrv",
            "url": "https://wallhaven.cc/w/zyeyrv",
            "short_url": "https://whvn.cc/zyeyrv",
            "views": 110,
            "favorites": 7,
            "source": "",
            "purity": "sfw",
            "category": "general",
            "dimension_x": 2047,
            "dimension_y": 1638,
            "resolution": "2047x1638",
            "ratio": "1.25",
            "file_size": 708509,
            "file_type": "image/jpeg",
            "created_at": "2024-08-27 10:59:42",
            "colors": [
                "#424153",
                "#999999",
                "#000000",
                "#663399",
                "#663300"
            ],
            "path": "https://w.wallhaven.cc/full/zy/wallhaven-zyeyrv.jpg",
            "thumbs": {
                "large": "https://th.wallhaven.cc/lg/zy/zyeyrv.jpg",
                "original": "https://th.wallhaven.cc/orig/zy/zyeyrv.jpg",
                "small": "https://th.wallhaven.cc/small/zy/zyeyrv.jpg"
            }
        },
        {
            "id": "zyey3v",
            "url": "https://wallhaven.cc/w/zyey3v",
            "short_url": "https://whvn.cc/zyey3v",
            "views": 161,
            "favorites": 6,
            "source": "",
            "purity": "sfw",
            "category": "general",
            "dimension_x": 1900,
            "dimension_y": 1267,
            "resolution": "1900x1267",
            "ratio": "1.5",
            "file_size": 416832,
            "file_type": "image/jpeg",
            "created_at": "2024-08-27 10:37:17",
            "colors": [
                "#424153",
                "#cc6633",
                "#ffcc33",
                "#333399",
                "#999999"
            ],
            "path": "https://w.wallhaven.cc/full/zy/wallhaven-zyey3v.jpg",
            "thumbs": {
                "large": "https://th.wallhaven.cc/lg/zy/zyey3v.jpg",
                "original": "https://th.wallhaven.cc/orig/zy/zyey3v.jpg",
                "small": "https://th.wallhaven.cc/small/zy/zyey3v.jpg"
            }
        },
        {
            "id": "qzyzv5",
            "url": "https://wallhaven.cc/w/qzyzv5",
            "short_url": "https://whvn.cc/qzyzv5",
            "views": 74,
            "favorites": 4,
            "source": "",
            "purity": "sfw",
            "category": "general",
            "dimension_x": 1900,
            "dimension_y": 1267,
            "resolution": "1900x1267",
            "ratio": "1.5",
            "file_size": 386073,
            "file_type": "image/jpeg",
            "created_at": "2024-08-27 10:37:17",
            "colors": [
                "#cccc33",
                "#336600",
                "#77cc33",
                "#996633",
                "#000000"
            ],
            "path": "https://w.wallhaven.cc/full/qz/wallhaven-qzyzv5.jpg",
            "thumbs": {
                "large": "https://th.wallhaven.cc/lg/qz/qzyzv5.jpg",
                "original": "https://th.wallhaven.cc/orig/qz/qzyzv5.jpg",
                "small": "https://th.wallhaven.cc/small/qz/qzyzv5.jpg"
            }
        },
        {
            "id": "exmxpw",
            "url": "https://wallhaven.cc/w/exmxpw",
            "short_url": "https://whvn.cc/exmxpw",
            "views": 178,
            "favorites": 10,
            "source": "",
            "purity": "sfw",
            "category": "general",
            "dimension_x": 1900,
            "dimension_y": 1266,
            "resolution": "1900x1266",
            "ratio": "1.5",
            "file_size": 79681,
            "file_type": "image/jpeg",
            "created_at": "2024-08-27 10:37:17",
            "colors": [
                "#000000",
                "#663300",
                "#996633",
                "#999900",
                "#666600"
            ],
            "path": "https://w.wallhaven.cc/full/ex/wallhaven-exmxpw.jpg",
            "thumbs": {
                "large": "https://th.wallhaven.cc/lg/ex/exmxpw.jpg",
                "original": "https://th.wallhaven.cc/orig/ex/exmxpw.jpg",
                "small": "https://th.wallhaven.cc/small/ex/exmxpw.jpg"
            }
        },
        {
            "id": "x6m63d",
            "url": "https://wallhaven.cc/w/x6m63d",
            "short_url": "https://whvn.cc/x6m63d",
            "views": 53,
            "favorites": 2,
            "source": "",
            "purity": "sfw",
            "category": "general",
            "dimension_x": 1900,
            "dimension_y": 1267,
            "resolution": "1900x1267",
            "ratio": "1.5",
            "file_size": 128184,
            "file_type": "image/jpeg",
            "created_at": "2024-08-27 10:37:17",
            "colors": [
                "#ffffff",
                "#cccccc",
                "#660000",
                "#ffff00",
                "#abbcda"
            ],
            "path": "https://w.wallhaven.cc/full/x6/wallhaven-x6m63d.jpg",
            "thumbs": {
                "large": "https://th.wallhaven.cc/lg/x6/x6m63d.jpg",
                "original": "https://th.wallhaven.cc/orig/x6/x6m63d.jpg",
                "small": "https://th.wallhaven.cc/small/x6/x6m63d.jpg"
            }
        },
        {
            "id": "d676mj",
            "url": "https://wallhaven.cc/w/d676mj",
            "short_url": "https://whvn.cc/d676mj",
            "views": 117,
            "favorites": 5,
            "source": "",
            "purity": "sfw",
            "category": "general",
            "dimension_x": 1900,
            "dimension_y": 1353,
            "resolution": "1900x1353",
            "ratio": "1.4",
            "file_size": 513562,
            "file_type": "image/jpeg",
            "created_at": "2024-08-27 10:37:17",
            "colors": [
                "#424153",
                "#ea4c88",
                "#000000",
                "#999999",
                "#fdadc7"
            ],
            "path": "https://w.wallhaven.cc/full/d6/wallhaven-d676mj.jpg",
            "thumbs": {
                "large": "https://th.wallhaven.cc/lg/d6/d676mj.jpg",
                "original": "https://th.wallhaven.cc/orig/d6/d676mj.jpg",
                "small": "https://th.wallhaven.cc/small/d6/d676mj.jpg"
            }
        },
        {
            "id": "kxqxv6",
            "url": "https://wallhaven.cc/w/kxqxv6",
            "short_url": "https://whvn.cc/kxqxv6",
            "views": 97,
            "favorites": 3,
            "source": "",
            "purity": "sfw",
            "category": "general",
            "dimension_x": 1900,
            "dimension_y": 1267,
            "resolution": "1900x1267",
            "ratio": "1.5",
            "file_size": 556770,
            "file_type": "image/jpeg",
            "created_at": "2024-08-27 10:37:17",
            "colors": [
                "#424153",
                "#999999",
                "#cccccc",
                "#ffffff",
                "#000000"
            ],
            "path": "https://w.wallhaven.cc/full/kx/wallhaven-kxqxv6.jpg",
            "thumbs": {
                "large": "https://th.wallhaven.cc/lg/kx/kxqxv6.jpg",
                "original": "https://th.wallhaven.cc/orig/kx/kxqxv6.jpg",
                "small": "https://th.wallhaven.cc/small/kx/kxqxv6.jpg"
            }
        },
        {
            "id": "rrlr51",
            "url": "https://wallhaven.cc/w/rrlr51",
            "short_url": "https://whvn.cc/rrlr51",
            "views": 94,
            "favorites": 5,
            "source": "",
            "purity": "sfw",
            "category": "general",
            "dimension_x": 1900,
            "dimension_y": 1375,
            "resolution": "1900x1375",
            "ratio": "1.38",
            "file_size": 668233,
            "file_type": "image/jpeg",
            "created_at": "2024-08-27 10:37:17",
            "colors": [
                "#424153",
                "#999999",
                "#000000",
                "#cccccc",
                "#663399"
            ],
            "path": "https://w.wallhaven.cc/full/rr/wallhaven-rrlr51.jpg",
            "thumbs": {
                "large": "https://th.wallhaven.cc/lg/rr/rrlr51.jpg",
                "original": "https://th.wallhaven.cc/orig/rr/rrlr51.jpg",
                "small": "https://th.wallhaven.cc/small/rr/rrlr51.jpg"
            }
        },
        {
            "id": "we7e6x",
            "url": "https://wallhaven.cc/w/we7e6x",
            "short_url": "https://whvn.cc/we7e6x",
            "views": 202,
            "favorites": 7,
            "source": "https://twitter.com/SekiEnji/status/1827843399355150476",
            "purity": "sfw",
            "category": "anime",
            "dimension_x": 1448,
            "dimension_y": 2048,
            "resolution": "1448x2048",
            "ratio": "0.71",
            "file_size": 2249598,
            "file_type": "image/png",
            "created_at": "2024-08-27 00:05:29",
            "colors": [
                "#cccccc",
                "#ffffff",
                "#66cccc",
                "#999999",
                "#424153"
            ],
            "path": "https://w.wallhaven.cc/full/we/wallhaven-we7e6x.png",
            "thumbs": {
                "large": "https://th.wallhaven.cc/lg/we/we7e6x.jpg",
                "original": "https://th.wallhaven.cc/orig/we/we7e6x.jpg",
                "small": "https://th.wallhaven.cc/small/we/we7e6x.jpg"
            }
        },
        {
            "id": "qzyz6d",
            "url": "https://wallhaven.cc/w/qzyz6d",
            "short_url": "https://whvn.cc/qzyz6d",
            "views": 502,
            "favorites": 8,
            "source": "",
            "purity": "sfw",
            "category": "people",
            "dimension_x": 1280,
            "dimension_y": 1920,
            "resolution": "1280x1920",
            "ratio": "0.67",
            "file_size": 604437,
            "file_type": "image/jpeg",
            "created_at": "2024-08-26 23:22:17",
            "colors": [
                "#999999",
                "#996633",
                "#424153",
                "#990000",
                "#000000"
            ],
            "path": "https://w.wallhaven.cc/full/qz/wallhaven-qzyz6d.jpg",
            "thumbs": {
                "large": "https://th.wallhaven.cc/lg/qz/qzyz6d.jpg",
                "original": "https://th.wallhaven.cc/orig/qz/qzyz6d.jpg",
                "small": "https://th.wallhaven.cc/small/qz/qzyz6d.jpg"
            }
        },
        {
            "id": "85y5ko",
            "url": "https://wallhaven.cc/w/85y5ko",
            "short_url": "https://whvn.cc/85y5ko",
            "views": 156,
            "favorites": 5,
            "source": "https://www.instagram.com/p/C-VSYR4sBTI/?igsh=MWJneGk2MXh6a3V3Zg==",
            "purity": "sfw",
            "category": "people",
            "dimension_x": 1080,
            "dimension_y": 1339,
            "resolution": "1080x1339",
            "ratio": "0.81",
            "file_size": 1984857,
            "file_type": "image/png",
            "created_at": "2024-08-26 22:47:04",
            "colors": [
                "#000000",
                "#424153",
                "#999999",
                "#996633",
                "#663300"
            ],
            "path": "https://w.wallhaven.cc/full/85/wallhaven-85y5ko.png",
            "thumbs": {
                "large": "https://th.wallhaven.cc/lg/85/85y5ko.jpg",
                "original": "https://th.wallhaven.cc/orig/85/85y5ko.jpg",
                "small": "https://th.wallhaven.cc/small/85/85y5ko.jpg"
            }
        },
        {
            "id": "3l1l3y",
            "url": "https://wallhaven.cc/w/3l1l3y",
            "short_url": "https://whvn.cc/3l1l3y",
            "views": 391,
            "favorites": 11,
            "source": "",
            "purity": "sfw",
            "category": "anime",
            "dimension_x": 2250,
            "dimension_y": 4000,
            "resolution": "2250x4000",
            "ratio": "0.56",
            "file_size": 3566962,
            "file_type": "image/png",
            "created_at": "2024-08-26 20:33:24",
            "colors": [
                "#996633",
                "#663300",
                "#999999",
                "#424153",
                "#000000"
            ],
            "path": "https://w.wallhaven.cc/full/3l/wallhaven-3l1l3y.png",
            "thumbs": {
                "large": "https://th.wallhaven.cc/lg/3l/3l1l3y.jpg",
                "original": "https://th.wallhaven.cc/orig/3l/3l1l3y.jpg",
                "small": "https://th.wallhaven.cc/small/3l/3l1l3y.jpg"
            }
        },
        {
            "id": "rrlrgj",
            "url": "https://wallhaven.cc/w/rrlrgj",
            "short_url": "https://whvn.cc/rrlrgj",
            "views": 321,
            "favorites": 16,
            "source": "",
            "purity": "sfw",
            "category": "anime",
            "dimension_x": 2250,
            "dimension_y": 4000,
            "resolution": "2250x4000",
            "ratio": "0.56",
            "file_size": 604137,
            "file_type": "image/jpeg",
            "created_at": "2024-08-26 20:33:24",
            "colors": [
                "#424153",
                "#999999",
                "#cccccc",
                "#abbcda",
                "#663399"
            ],
            "path": "https://w.wallhaven.cc/full/rr/wallhaven-rrlrgj.jpg",
            "thumbs": {
                "large": "https://th.wallhaven.cc/lg/rr/rrlrgj.jpg",
                "original": "https://th.wallhaven.cc/orig/rr/rrlrgj.jpg",
                "small": "https://th.wallhaven.cc/small/rr/rrlrgj.jpg"
            }
        },
        {
            "id": "x6mlro",
            "url": "https://wallhaven.cc/w/x6mlro",
            "short_url": "https://whvn.cc/x6mlro",
            "views": 278,
            "favorites": 15,
            "source": "",
            "purity": "sfw",
            "category": "anime",
            "dimension_x": 3840,
            "dimension_y": 2160,
            "resolution": "3840x2160",
            "ratio": "1.78",
            "file_size": 13341496,
            "file_type": "image/png",
            "created_at": "2024-08-26 16:25:59",
            "colors": [
                "#e7d8b1",
                "#ffcc33",
                "#424153",
                "#663399",
                "#999999"
            ],
            "path": "https://w.wallhaven.cc/full/x6/wallhaven-x6mlro.png",
            "thumbs": {
                "large": "https://th.wallhaven.cc/lg/x6/x6mlro.jpg",
                "original": "https://th.wallhaven.cc/orig/x6/x6mlro.jpg",
                "small": "https://th.wallhaven.cc/small/x6/x6mlro.jpg"
            }
        },
        {
            "id": "exmy5l",
            "url": "https://wallhaven.cc/w/exmy5l",
            "short_url": "https://whvn.cc/exmy5l",
            "views": 214,
            "favorites": 10,
            "source": "",
            "purity": "sfw",
            "category": "anime",
            "dimension_x": 1920,
            "dimension_y": 1080,
            "resolution": "1920x1080",
            "ratio": "1.78",
            "file_size": 4533277,
            "file_type": "image/png",
            "created_at": "2024-08-26 16:25:59",
            "colors": [
                "#cc3333",
                "#333399",
                "#993399",
                "#424153",
                "#ffffff"
            ],
            "path": "https://w.wallhaven.cc/full/ex/wallhaven-exmy5l.png",
            "thumbs": {
                "large": "https://th.wallhaven.cc/lg/ex/exmy5l.jpg",
                "original": "https://th.wallhaven.cc/orig/ex/exmy5l.jpg",
                "small": "https://th.wallhaven.cc/small/ex/exmy5l.jpg"
            }
        },
        {
            "id": "jxz3zw",
            "url": "https://wallhaven.cc/w/jxz3zw",
            "short_url": "https://whvn.cc/jxz3zw",
            "views": 670,
            "favorites": 28,
            "source": "https://www.pixiv.net/artworks/121653403",
            "purity": "sfw",
            "category": "anime",
            "dimension_x": 3000,
            "dimension_y": 4412,
            "resolution": "3000x4412",
            "ratio": "0.68",
            "file_size": 2523975,
            "file_type": "image/jpeg",
            "created_at": "2024-08-26 10:39:14",
            "colors": [
                "#424153",
                "#000000",
                "#999999",
                "#cccccc",
                "#ffffff"
            ],
            "path": "https://w.wallhaven.cc/full/jx/wallhaven-jxz3zw.jpg",
            "thumbs": {
                "large": "https://th.wallhaven.cc/lg/jx/jxz3zw.jpg",
                "original": "https://th.wallhaven.cc/orig/jx/jxz3zw.jpg",
                "small": "https://th.wallhaven.cc/small/jx/jxz3zw.jpg"
            }
        },
        {
            "id": "l8131y",
            "url": "https://wallhaven.cc/w/l8131y",
            "short_url": "https://whvn.cc/l8131y",
            "views": 586,
            "favorites": 16,
            "source": "",
            "purity": "sfw",
            "category": "anime",
            "dimension_x": 1800,
            "dimension_y": 3047,
            "resolution": "1800x3047",
            "ratio": "0.59",
            "file_size": 13649796,
            "file_type": "image/jpeg",
            "created_at": "2024-08-26 10:37:54",
            "colors": [
                "#424153",
                "#999999",
                "#996633",
                "#cccccc",
                "#663300"
            ],
            "path": "https://w.wallhaven.cc/full/l8/wallhaven-l8131y.jpg",
            "thumbs": {
                "large": "https://th.wallhaven.cc/lg/l8/l8131y.jpg",
                "original": "https://th.wallhaven.cc/orig/l8/l8131y.jpg",
                "small": "https://th.wallhaven.cc/small/l8/l8131y.jpg"
            }
        },
        {
            "id": "d67pzj",
            "url": "https://wallhaven.cc/w/d67pzj",
            "short_url": "https://whvn.cc/d67pzj",
            "views": 294,
            "favorites": 5,
            "source": "",
            "purity": "sfw",
            "category": "anime",
            "dimension_x": 1923,
            "dimension_y": 861,
            "resolution": "1923x861",
            "ratio": "2.23",
            "file_size": 1373289,
            "file_type": "image/png",
            "created_at": "2024-08-26 06:13:59",
            "colors": [
                "#66cccc",
                "#abbcda",
                "#cccccc",
                "#ffffff",
                "#999999"
            ],
            "path": "https://w.wallhaven.cc/full/d6/wallhaven-d67pzj.png",
            "thumbs": {
                "large": "https://th.wallhaven.cc/lg/d6/d67pzj.jpg",
                "original": "https://th.wallhaven.cc/orig/d6/d67pzj.jpg",
                "small": "https://th.wallhaven.cc/small/d6/d67pzj.jpg"
            }
        },
        {
            "id": "jxz3lm",
            "url": "https://wallhaven.cc/w/jxz3lm",
            "short_url": "https://whvn.cc/jxz3lm",
            "views": 240,
            "favorites": 2,
            "source": "",
            "purity": "sfw",
            "category": "general",
            "dimension_x": 5120,
            "dimension_y": 2880,
            "resolution": "5120x2880",
            "ratio": "1.78",
            "file_size": 5267853,
            "file_type": "image/jpeg",
            "created_at": "2024-08-25 21:13:00",
            "colors": [
                "#424153",
                "#cccccc",
                "#999999",
                "#000000",
                "#abbcda"
            ],
            "path": "https://w.wallhaven.cc/full/jx/wallhaven-jxz3lm.jpg",
            "thumbs": {
                "large": "https://th.wallhaven.cc/lg/jx/jxz3lm.jpg",
                "original": "https://th.wallhaven.cc/orig/jx/jxz3lm.jpg",
                "small": "https://th.wallhaven.cc/small/jx/jxz3lm.jpg"
            }
        },
        {
            "id": "yxp8w7",
            "url": "https://wallhaven.cc/w/yxp8w7",
            "short_url": "https://whvn.cc/yxp8w7",
            "views": 193,
            "favorites": 1,
            "source": "",
            "purity": "sfw",
            "category": "general",
            "dimension_x": 3840,
            "dimension_y": 2160,
            "resolution": "3840x2160",
            "ratio": "1.78",
            "file_size": 6283561,
            "file_type": "image/jpeg",
            "created_at": "2024-08-25 21:13:00",
            "colors": [
                "#999999",
                "#424153",
                "#cccccc",
                "#000000",
                "#996633"
            ],
            "path": "https://w.wallhaven.cc/full/yx/wallhaven-yxp8w7.jpg",
            "thumbs": {
                "large": "https://th.wallhaven.cc/lg/yx/yxp8w7.jpg",
                "original": "https://th.wallhaven.cc/orig/yx/yxp8w7.jpg",
                "small": "https://th.wallhaven.cc/small/yx/yxp8w7.jpg"
            }
        },
        {
            "id": "gpe713",
            "url": "https://wallhaven.cc/w/gpe713",
            "short_url": "https://whvn.cc/gpe713",
            "views": 211,
            "favorites": 1,
            "source": "",
            "purity": "sfw",
            "category": "general",
            "dimension_x": 5120,
            "dimension_y": 2880,
            "resolution": "5120x2880",
            "ratio": "1.78",
            "file_size": 5568059,
            "file_type": "image/jpeg",
            "created_at": "2024-08-25 21:13:00",
            "colors": [
                "#424153",
                "#999999",
                "#cccccc",
                "#663300",
                "#000000"
            ],
            "path": "https://w.wallhaven.cc/full/gp/wallhaven-gpe713.jpg",
            "thumbs": {
                "large": "https://th.wallhaven.cc/lg/gp/gpe713.jpg",
                "original": "https://th.wallhaven.cc/orig/gp/gpe713.jpg",
                "small": "https://th.wallhaven.cc/small/gp/gpe713.jpg"
            }
        },
        {
            "id": "3l1z7v",
            "url": "https://wallhaven.cc/w/3l1z7v",
            "short_url": "https://whvn.cc/3l1z7v",
            "views": 247,
            "favorites": 2,
            "source": "",
            "purity": "sfw",
            "category": "general",
            "dimension_x": 7680,
            "dimension_y": 4320,
            "resolution": "7680x4320",
            "ratio": "1.78",
            "file_size": 5846148,
            "file_type": "image/jpeg",
            "created_at": "2024-08-25 21:12:04",
            "colors": [
                "#424153",
                "#999999",
                "#0099cc",
                "#cccc33",
                "#0066cc"
            ],
            "path": "https://w.wallhaven.cc/full/3l/wallhaven-3l1z7v.jpg",
            "thumbs": {
                "large": "https://th.wallhaven.cc/lg/3l/3l1z7v.jpg",
                "original": "https://th.wallhaven.cc/orig/3l/3l1z7v.jpg",
                "small": "https://th.wallhaven.cc/small/3l/3l1z7v.jpg"
            }
        }
    ],
    "meta": {
        "current_page": 1,
        "last_page": 11882,
        "per_page": 24,
        "total": 285151,
        "query": "anime",
        "seed": null
    }
}